<svg width="1792" height="1792" xmlns="http://www.w3.org/2000/svg">

 <g>
  <title>background</title>
  <rect fill="none" id="canvas_background" height="1794" width="1794" y="-1" x="-1"/>
 </g>
 <g>
  <title>Layer 1</title>
  <path stroke="null" id="svg_1" d="m1020.7657,799.69286l0,38.522856q0,7.824955 -6.173303,13.543192t-14.62098,5.718237l-145.559984,0l0,134.829998q0,7.824955 -6.173303,13.543192t-14.62098,5.718237l-41.588567,0q-8.447678,0 -14.62098,-5.718237t-6.173303,-13.543192l0,-134.829998l-145.559984,0q-8.447678,0 -14.62098,-5.718237t-6.173303,-13.543192l0,-38.522856q0,-7.824955 6.173303,-13.543192t14.62098,-5.718237l145.559984,0l0,-134.829998q0,-7.824955 6.173303,-13.543192t14.62098,-5.718237l41.588567,0q8.447678,0 14.62098,5.718237t6.173303,13.543192l0,134.829998l145.559984,0q8.447678,0 14.62098,5.718237t6.173303,13.543192zm83.177133,19.261428q0,-111.355132 -85.451508,-190.507564t-205.668459,-79.152432t-205.668459,79.152432t-85.451508,190.507564t85.451508,190.507564t205.668459,79.152432t205.668459,-79.152432t85.451508,-190.507564zm332.708534,500.797134q0,31.90174 -24.368301,54.473727t-58.808833,22.571986q-35.090353,0 -58.483922,-22.872946l-222.888725,-205.856514q-116.318023,74.638034 -259.278721,74.638034q-92.924454,0 -177.726141,-33.40654t-146.209805,-90.287945t-97.473203,-135.431917t-36.065085,-164.625019t36.065085,-164.625019t97.473203,-135.431917t146.209805,-90.287945t177.726141,-33.40654t177.726141,33.40654t146.209805,90.287945t97.473203,135.431917t36.065085,164.625019q0,132.422319 -80.577848,240.165933l222.888725,206.458434q24.04339,22.271026 24.04339,54.172767z"/>
 </g>
</svg>