<svg width="20" height="20" xmlns="http://www.w3.org/2000/svg">

 <g>
  <title>background</title>
  <rect fill="none" id="canvas_background" height="402" width="582" y="-1" x="-1"/>
 </g>
 <g>
  <title>Layer 1</title>
  <path fill="#4fa2d9" id="svg_1" d="m2.8,15.8l-2.8,-2.8l0,7l7,0l-2.8,-2.8l4.34,-4.32l-1.42,-1.42l-4.32,4.34zm14.4,-11.6l2.8,2.8l0,-7l-7,0l2.8,2.8l-4.34,4.32l1.42,1.42l4.32,-4.34zm-1.4,13l-2.8,2.8l7,0l0,-7l-2.8,2.8l-4.32,-4.34l-1.42,1.42l4.33,4.33l0.01,-0.01zm-11.59,-14.41l2.79,-2.79l-7,0l0,7l2.8,-2.8l4.32,4.34l1.42,-1.42l-4.34,-4.32l0.01,-0.01z"/>
 </g>
</svg>