<svg width="512" height="512" xmlns="http://www.w3.org/2000/svg">

 <g>
  <title>background</title>
  <rect fill="none" id="canvas_background" height="402" width="582" y="-1" x="-1"/>
 </g>
 <g>
  <title>Layer 1</title>
  <path fill="#2a3c68" fill-rule="nonzero" stroke-width="10" id="rect3813" d="m127.6875,394.749988l-8.3125,100l273.25,0l-8.3125,-100l-256.625,0zm22.03125,20c0.0729,-0.002 0.14584,-0.002 0.21875,0c0.16653,-0.008 0.33347,-0.008 0.5,0l170,0c2.64156,-0.0374 5.0625,2.35817 5.0625,5c0,2.64183 -2.42094,5.03736 -5.0625,5l-170,0c-2.61799,0.18817 -5.15558,-2.03825 -5.34375,-4.65625c-0.18817,-2.61799 2.00701,-5.15558 4.625,-5.34375zm-2.125,25l0.21875,0c0.16653,-0.01 0.33347,-0.01 0.5,0l213,0c2.64156,-0.037 5.0625,2.3582 5.0625,5c0,2.6418 -2.42094,5.0374 -5.0625,5l-213,0c-2.61799,0.1882 -5.15558,-2.03825 -5.34375,-4.65625c-0.18817,-2.618 2.00701,-5.15555 4.625,-5.34375zm-1.90625,25l0.21875,0c0.16653,-0.01 0.33347,-0.01 0.5,0l135,0c2.64156,-0.037 5.0625,2.3582 5.0625,5c0,2.6418 -2.42094,5.0374 -5.0625,5l-135,0c-2.61799,0.1882 -5.15558,-2.03825 -5.34375,-4.65625c-0.18817,-2.618 2.00701,-5.15555 4.625,-5.34375z"/>
  <path fill="#4fa2d9" fill-rule="nonzero" stroke-width="4" id="rect3821" d="m106,129.743579l0,60l-60,0c-2.06247,0.00009 -4.31392,0.73775 -5.96875,1.96875c-1.65483,1.231 -3.03189,3.18089 -3.625,5.15625l0.03125,0l-15,50c-0.27741,0.92457 -0.43759,1.9097 -0.4375,2.875l0,30.21875l0,24.78125l0,5l0,32.8125l0,67.1875c0.00025,2.4918 1.17548,5.30053 2.9375,7.0625c1.76197,1.76197 4.57071,2.93725 7.0625,2.9375l74.53125,0l2.96875,-35.46875l0,-49.53125c-0.006,-1.31856 0.53527,-2.63123 1.46875,-3.5625l5,-5c0.80678,-0.80597 1.89664,-1.32282 3.03125,-1.4375c0.16653,-0.008 0.33347,-0.008 0.5,0l275,0c1.30385,-0.006 2.60222,0.52264 3.53125,1.4375l5,5c0.93348,0.93127 1.47466,2.24394 1.46875,3.5625l0,49.53125l2.96875,35.46875l74.53125,0c2.49179,-0.00025 5.30053,-1.17553 7.0625,-2.9375c1.76197,-1.76197 2.93725,-4.57071 2.9375,-7.0625l0,-67.1875l0,-2.8125l-50,0l0,-20l50,0l0,-10l0,-5l0,-24.78125l0,-30.21875c0.00009,-0.9653 -0.1601,-1.95044 -0.4375,-2.875l-15,-50l0.0312,0c-0.59311,-1.97537 -1.97017,-3.92525 -3.625,-5.15625c-1.65476,-1.23099 -3.90623,-1.96866 -5.9687,-1.96875l-60,0l0,-60l-15,0l0,64.28125l0,3.21875c-0.005,2.61631 -1.08532,5.21466 -2.9375,7.0625l-10,10c-1.84784,1.85218 -4.44619,2.93291 -7.0625,2.9375l-230,0c-2.61631,-0.005 -5.21466,-1.08532 -7.0625,-2.9375l-10,-10c-1.85218,-1.84784 -2.93291,-4.44619 -2.9375,-7.0625l0,-3.21875l0,-64.28125l-15,0zm14.5625,205l-2.0625,2.0625l0,37.9375l275,0l0,-37.9375l-2.0625,-2.0625l-270.875,0z"/>
  <path fill="#2a3c68" fill-rule="nonzero" stroke-width="10" id="rect3813-1" d="m141,16.999996l0,190l230,0l0,-190l-230,0z"/>
 </g>
</svg>